<svg width="14" height="42" xmlns="http://www.w3.org/2000/svg" xmlns:xlink="http://www.w3.org/1999/xlink">
  <defs>
    <path id="a" d="M0 0h14v42H0z"/>
  </defs>
  <g fill="none" fill-rule="evenodd">
    <mask id="b" fill="#fff">
      <use xlink:href="#a"/>
    </mask>
    <path stroke="#0052CC" stroke-width="3" opacity=".8" stroke-linecap="round" stroke-linejoin="round" mask="url(#b)" d="M-17.5-1l22 22-22 22"/>
    <path stroke="#0052CC" stroke-width="3" opacity=".5" stroke-linecap="round" stroke-linejoin="round" mask="url(#b)" d="M-10.5-1l22 22-22 22"/>
  </g>
</svg>