<svg width="20" height="48" xmlns="http://www.w3.org/2000/svg">
  <g fill="#FFF" fill-rule="evenodd">
    <path opacity=".8" d="M0 0h4v48H0z"/>
    <path opacity=".6" d="M8 0h4v48H8z"/>
    <path opacity=".4" d="M16 0h4v48h-4z"/>
  </g>
</svg>