<svg width="12" height="42" xmlns="http://www.w3.org/2000/svg">
  <g fill="#FFF" fill-rule="evenodd">
    <rect opacity=".8" y="6" width="6" height="6" rx="1"/>
    <rect opacity=".6" x="6" y="12" width="6" height="6" rx="1"/>
    <rect opacity=".8" y="18" width="6" height="6" rx="1"/>
    <rect opacity=".6" x="6" width="6" height="6" rx="1"/>
    <rect opacity=".6" x="6" y="24" width="6" height="6" rx="1"/>
    <rect opacity=".8" y="30" width="6" height="6" rx="1"/>
    <rect opacity=".8" x="6" y="36" width="6" height="6" rx="1"/>
  </g>
</svg>